{
    "assetsPath": ".",

    "production": false,

    "css": {
        "outputFolder": "../../../../public/css/admin"
    },

    "js": {
        "outputFolder": "../../../../public/js/admin"
    }
}
