{
    "assetsPath": ".",

    "production": false,

    "css": {
        "outputFolder": "../../../../../public/css/themes/ce"
    },

    "js": {
        "outputFolder": "../../../../../public/js/themes/ce"
    }
}
